^C:\USERS\משתמש\HOMEWORK4-NIRZARII\HW4A\LIBRARY\STREAMTEST\DEBUG\STREAMTEST.OBJ
C:\USERS\משתמש\HOMEWORK4-NIRZARII\HW4A\LIBRARY\DEBUG\STREAMTEST.ILK
C:\USERS\משתמש\HOMEWORK4-NIRZARII\HW4A\LIBRARY\DEBUG\STREAMTEST.EXE
C:\USERS\משתמש\HOMEWORK4-NIRZARII\HW4A\LIBRARY\DEBUG\STREAMTEST.PDB
