^C:\USERS\משתמש\HOMEWORK4-NIRZARII\HW4A\LIBRARY\HW4V\HW4V.CPP|C:\USERS\משתמש\HOMEWORK4-NIRZARII\HW4A\LIBRARY\HW4V\STREAMLIB.CPP
C:\USERS\משתמש\HOMEWORK4-NIRZARII\HW4A\LIBRARY\HW4V\DEBUG\HW4V.PDB
C:\USERS\משתמש\HOMEWORK4-NIRZARII\HW4A\LIBRARY\HW4V\DEBUG\HW4V.IDB
C:\USERS\משתמש\HOMEWORK4-NIRZARII\HW4A\LIBRARY\HW4V\DEBUG\STREAMLIB.OBJ
C:\USERS\משתמש\HOMEWORK4-NIRZARII\HW4A\LIBRARY\HW4V\DEBUG\HW4V.OBJ
^C:\USERS\משתמש\HOMEWORK4-NIRZARII\HW4A\LIBRARY\HW4V\HW4V.CPP
C:\USERS\משתמש\HOMEWORK4-NIRZARII\HW4A\LIBRARY\HW4V\DEBUG\HW4V.PDB
^C:\USERS\משתמש\HOMEWORK4-NIRZARII\HW4A\LIBRARY\HW4V\STREAMLIB.CPP
C:\USERS\משתמש\HOMEWORK4-NIRZARII\HW4A\LIBRARY\HW4V\DEBUG\HW4V.PDB
C:\USERS\משתמש\HOMEWORK4-NIRZARII\HW4A\LIBRARY\HW4V\DEBUG\HW4V.IDB
C:\USERS\משתמש\HOMEWORK4-NIRZARII\HW4A\LIBRARY\HW4V\DEBUG\STREAMLIB.OBJ
